…
# return the first value of the first column
data_frame[1:1]
```

```
## # A tibble: 50 x 1
##       c1
##    <dbl>
##  1  5.03
##  2  4.76
##  3  3.05
##  4  5.08
##  5  4.72
##  6  5.10
##  7  4.44
##  8  5.52
##  9  4.43
## 10  4.97
## # ... with 40 more rows
```
…
```
## # A tibble: 2 x 2
##      c1    c2
##   <dbl> <dbl>
## 1  5.03  5.05
## 2  4.76  6.65
```

```r
# return the first column with all values.
data_frame[,2] 
```

```
## # A tibble: 50 x 1
##       c2
##    <dbl>
##  1  5.05
##  2  6.65
##  3  7.88
##  4  4.83
##  5  3.24
##  6  6.54
##  7  3.47
##  8  3.84
##  9  5.65
## 10  7.68
## # ... with 40 more rows
```
…
