…
**Standard deviation**

Spread in the data is computed with the standard deviation or `sd()` in R.  


```r
# Spread
data %>%
    group_by(teamID) %>%
    summarise(sd_at_bat_league = sd(HR)) 
```

```
## # A tibble: 148 x 2
##    teamID sd_at_bat_league
##    <fct>             <dbl>
##  1 ALT              NA    
##  2 ANA               8.78 
##  3 ARI               6.08 
##  4 ATL               8.54 
##  5 BAL               7.74 
##  6 BFN               1.36 
##  7 BFP               0.447
##  8 BL1               0.699
##  9 BL2               1.71 
## 10 BL3               1.00 
## # ... with 138 more rows
```
…
You can access the minimum and the maximum of a vector with the function `min()` and `max()`. 

The code below returns the lowest and highest number of games in a season played by a player. 


```r
# Min and max
data %>%
    group_by(playerID) %>%
    summarise(min_G = min(G),
              max_G = max(G)) 
```

```
## # A tibble: 10,395 x 3
##    playerID  min_G max_G
##    <fct>     <dbl> <dbl>
##  1 aardsda01   53.   73.
##  2 aaronha01  120.  156.
##  3 aasedo01    24.   66.
##  4 abadfe01    18.   18.
##  5 abadijo01   11.   11.
##  6 abbated01    3.  153.
##  7 abbeybe01   11.   11.
##  8 abbeych01   80.  132.
##  9 abbotgl01    5.   23.
## 10 abbotji01   13.   29.
## # ... with 10,385 more rows
```
…
Count observations by group is always a good idea. With R, you can aggregate the the number of occurence with `n()`. 

For instance, the code below computes the number of years played by each player.


```r
# count observations
data %>%
    group_by(playerID) %>%
    summarise(number_year = n()) %>%
    arrange(desc(number_year))
```

```
## # A tibble: 10,395 x 2
##    playerID  number_year
##    <fct>           <int>
##  1 pennohe01          11
##  2 joosted01          10
##  3 mcguide01          10
##  4 rosepe01           10
##  5 davisha01           9
##  6 johnssi01           9
##  7 kaatji01            9
##  8 keelewi01           9
##  9 marshmi01           9
## 10 quirkja01           9
## # ... with 10,385 more rows
```
…
You can select the first, last or nth position of a group. 

For instance, you can find the first and last year of each player.  


```r
# first and last
data %>%
      group_by(playerID) %>%
      summarise(first_appearance = first(yearID),
                last_appearance = last(yearID))
```

```
## # A tibble: 10,395 x 3
##    playerID  first_appearance last_appearance
##    <fct>                <int>           <int>
##  1 aardsda01             2009            2010
##  2 aaronha01             1973            1975
##  3 aasedo01              1986            1990
##  4 abadfe01              2016            2016
##  5 abadijo01             1875            1875
##  6 abbated01             1905            1897
##  7 abbeybe01             1894            1894
##  8 abbeych01             1895            1897
##  9 abbotgl01             1973            1979
## 10 abbotji01             1992            1996
## # ... with 10,385 more rows
```
…
For instance, you can filter only the second year that a team played.  


```r
# nth
data %>%
      group_by(teamID) %>%
      summarise(second_game = nth(yearID,2)) %>%
      arrange(second_game)
```

```
## # A tibble: 148 x 2
##    teamID second_game
##    <fct>        <int>
##  1 BS1           1871
##  2 CH1           1871
##  3 FW1           1871
##  4 NY2           1871
##  5 RC1           1871
##  6 BR1           1872
##  7 BR2           1872
##  8 CL1           1872
##  9 MID           1872
## 10 TRO           1872
## # ... with 138 more rows
```
…
The function `n()` returns the number of observations in a current group. A closed function to `n()` is `n_distinct()`, which count the number of unique values. 

In the next example, you add up the total of players a team recruited during the all periods. 


```r
# distinct values
data %>%
    group_by(teamID) %>%
    summarise(number_player = n_distinct(playerID)) %>%
    arrange(desc(number_player))
```

```
## # A tibble: 148 x 2
##    teamID number_player
##    <fct>          <int>
##  1 CHN              751
##  2 SLN              729
##  3 PHI              699
##  4 PIT              683
##  5 CIN              679
##  6 BOS              647
##  7 CLE              646
##  8 CHA              636
##  9 DET              623
## 10 NYA              612
## # ... with 138 more rows
```
…
### Multiple groups

A summary statistic can be realized among multiple groups. 


```r
# Multiple groups
data %>%
  group_by(yearID, teamID) %>%
  summarise(mean_games = mean(G)) %>%
  arrange(desc(teamID, yearID))
```

```
## # A tibble: 2,829 x 3
## # Groups:   yearID [146]
##    yearID teamID mean_games
##     <int> <fct>       <dbl>
##  1   1884 WSU         20.4 
##  2   1891 WS9         46.3 
##  3   1886 WS8         22.0 
##  4   1887 WS8         51.0 
##  5   1888 WS8         27.0 
##  6   1889 WS8         52.4 
##  7   1884 WS7          8.00
##  8   1875 WS6         14.8 
##  9   1873 WS5         16.6 
## 10   1872 WS4          4.20
## # ... with 2,819 more rows
```
…
### Filter

Before you intend to do an operation, you can filter the dataset. The dataset starts in 1871, and the analysis does not need the years prior to 1980.


```r
# Filter
data %>%
    filter(yearID > 1980) %>%
    group_by(yearID) %>%
    summarise(mean_game_year = mean(G)) 
```

```
## # A tibble: 36 x 2
##    yearID mean_game_year
##     <int>          <dbl>
##  1   1981           40.6
##  2   1982           57.0
##  3   1983           60.3
##  4   1984           63.0
##  5   1985           57.8
##  6   1986           58.6
##  7   1987           48.7
##  8   1988           52.6
##  9   1989           58.2
## 10   1990           52.9
## # ... with 26 more rows
```
…
